,FÊMEAS,MACHOS,TOTAL
2015,,,
06/jan,2,1,3
05 e 06/mar,2,2,4
16/mar,5,7,12
01/abr,3,0,3
16/abr,9,12,21
24/mai,11,4,15
05/jul,11,13,24
22/ago,16,8,24
08/nov,11,6,17
,70,53,123
2016,,,
abr,1,2,3
19/jun,17,0,17
28/jun,0,12,12
31/jul,20,3,23
16/set,0,8,8
25/set,4,1,5
23/out,6,0,6
dez,2,1,3
,50,27,77
,,,
2017,,,
22/mar,0,6,6
07/abr,5,0,5
12/mai,20,11,31
12/jul,14,12,26
,39,29,68
,,,
TOTAL,159,109,268
